EESchema Schematic File Version 4
LIBS:kp7-cache
EELAYER 30 0
EELAYER END
$Descr A3 16535 11693
encoding utf-8
Sheet 1 1
Title "Схема электрическая принципиальная"
Date ""
Rev "Revision"
Comp "МГТУ им. Н.Э. Баумана \\n Группа ИУ6-72Б"
Comment1 "Многоканальный регистратор температуры"
Comment2 "Векшин Р.Д."
Comment3 "Хартов В.Я."
Comment4 ""
$EndDescr
$Comp
L Regulator_Linear:L7805 DD2
U 1 1 5DB54DDC
P 4300 9650
F 0 "DD2" H 4300 9892 50  0000 C CNN
F 1 "КР142ЕН5А" H 4300 9801 50  0000 C CNN
F 2 "" H 4325 9500 50  0001 L CIN
F 3 "http://www.st.com/content/ccc/resource/technical/document/datasheet/41/4f/b3/b0/12/d4/47/88/CD00000444.pdf/files/CD00000444.pdf/jcr:content/translations/en.CD00000444.pdf" H 4300 9600 50  0001 C CNN
	1    4300 9650
	1    0    0    -1  
$EndComp
Connection ~ 4300 10100
Wire Wire Line
	4850 10000 4850 10100
Wire Wire Line
	3750 10000 3750 10100
Wire Wire Line
	4300 9950 4300 10100
$Comp
L BC56-12EWA:table1 XP2
U 1 1 5DF19D59
P 2000 9550
F 0 "XP2" H 2325 9523 50  0000 C CNN
F 1 "table1" H 2000 9650 50  0001 C CNN
F 2 "" H 2000 9550 50  0001 C CNN
F 3 "" H 2000 9550 50  0001 C CNN
	1    2000 9550
	1    0    0    -1  
$EndComp
Text Notes 2000 10050 0    50   Italic 0
Разъем питания
Entry Wire Line
	5100 8000 5200 8100
Text Label 5200 8100 0    50   ~ 0
UART_RX
Text Notes 6300 9450 0    55   Italic 0
Контакты 7, 20 микросхемы DD1 подключить к +5V
Text Notes 6300 9600 0    55   Italic 0
Контакты 8, 22 микросхемы DD1 подключить к GND
Text Notes 6300 10050 0    55   Italic 0
Контакт 15 микросхемы DD5 подключить к GND
Text Notes 6300 9900 0    55   Italic 0
Контакт 8 микросхем DD3, DD4 подключить к GND
Text Notes 6300 9750 0    55   Italic 0
Контакт 16 микросхем DD3 - DD5 подключить к +5V
Text Notes 2100 10150 0    50   ~ 0
DS-201
$Comp
L Device:CP C4
U 1 1 5DBA0B80
P 4850 9850
F 0 "C4" H 4968 9896 50  0000 L CNN
F 1 "10 мкФ" H 4968 9805 50  0000 L CNN
F 2 "" H 4888 9700 50  0001 C CNN
F 3 "~" H 4850 9850 50  0001 C CNN
	1    4850 9850
	1    0    0    -1  
$EndComp
$Comp
L Device:CP C3
U 1 1 5DB9E407
P 3750 9850
F 0 "C3" H 3600 9900 50  0000 R CNN
F 1 "100 мкФ" H 3600 9800 50  0000 R CNN
F 2 "" H 3788 9700 50  0001 C CNN
F 3 "~" H 3750 9850 50  0001 C CNN
	1    3750 9850
	1    0    0    -1  
$EndComp
Wire Wire Line
	3250 9800 3250 9650
Wire Wire Line
	3250 9900 3250 10100
Wire Wire Line
	3250 10100 3750 10100
$Comp
L power:+5V #PWR0101
U 1 1 5E070574
P 5450 9500
F 0 "#PWR0101" H 5450 9350 50  0001 C CNN
F 1 "+5V" H 5465 9673 50  0000 C CNN
F 2 "" H 5450 9500 50  0001 C CNN
F 3 "" H 5450 9500 50  0001 C CNN
	1    5450 9500
	1    0    0    -1  
$EndComp
Wire Wire Line
	4300 10100 4300 10250
Entry Wire Line
	3000 2300 3100 2400
Wire Wire Line
	2450 4100 2450 4300
Wire Wire Line
	3000 4100 2450 4100
Wire Wire Line
	2450 2100 2450 1850
Wire Wire Line
	2300 2100 2450 2100
Text Label 3000 2200 2    50   ~ 0
SPI_SCK
Entry Wire Line
	3000 2000 3100 2100
$Comp
L power:+5V #PWR0103
U 1 1 5E779A03
P 2450 1850
F 0 "#PWR0103" H 2450 1700 50  0001 C CNN
F 1 "+5V" H 2465 2023 50  0000 C CNN
F 2 "" H 2450 1850 50  0001 C CNN
F 3 "" H 2450 1850 50  0001 C CNN
	1    2450 1850
	1    0    0    -1  
$EndComp
Wire Wire Line
	2450 2500 2450 2650
Wire Wire Line
	2300 2500 2450 2500
$Comp
L Device:Crystal ZQ1
U 1 1 5DB9C2D3
P 2100 4500
F 0 "ZQ1" V 2050 4750 50  0000 C CNN
F 1 "4 МГц" V 2150 4750 50  0000 C CNN
F 2 "" H 2100 4500 50  0001 C CNN
F 3 "~" H 2100 4500 50  0001 C CNN
	1    2100 4500
	0    1    1    0   
$EndComp
Wire Wire Line
	2450 3550 2450 3600
Wire Wire Line
	2450 3800 2450 3900
Connection ~ 1500 4700
Wire Wire Line
	1500 4750 1500 4700
Wire Wire Line
	1500 4700 1650 4700
Wire Wire Line
	1650 4300 1500 4300
$Comp
L power:+5V #PWR0107
U 1 1 5E1399FA
P 2450 3550
F 0 "#PWR0107" H 2450 3400 50  0001 C CNN
F 1 "+5V" H 2465 3723 50  0000 C CNN
F 2 "" H 2450 3550 50  0001 C CNN
F 3 "" H 2450 3550 50  0001 C CNN
	1    2450 3550
	1    0    0    -1  
$EndComp
$Comp
L Device:C_Small C1
U 1 1 5DB6A2CE
P 1750 4300
F 0 "C1" V 1500 4250 50  0000 L CNN
F 1 "22 пФ" V 1600 4200 50  0000 L CNN
F 2 "" H 1750 4300 50  0001 C CNN
F 3 "~" H 1750 4300 50  0001 C CNN
	1    1750 4300
	0    1    1    0   
$EndComp
Text Notes 1650 2750 0    50   ~ 0
IDC-06MS
$Comp
L atmega:ATmega8-16PU DD1
U 1 1 5DF29A43
P 3600 5000
F 0 "DD1" H 3600 6500 50  0000 C CNN
F 1 "ATmega8-16PU" H 3600 6400 50  0000 C CNN
F 2 "Package_DIP:DIP-28_W7.62mm" H 3600 5000 50  0001 C CIN
F 3 "http://ww1.microchip.com/downloads/en/DeviceDoc/atmel-2486-8-bit-avr-microcontroller-atmega8_l_datasheet.pdf" H 3600 5000 50  0001 C CNN
	1    3600 5000
	1    0    0    -1  
$EndComp
$Comp
L Device:R_Small R1
U 1 1 5E16C022
P 2450 3700
F 0 "R1" H 2200 3650 50  0000 L CNN
F 1 "10 кОм" H 2100 3750 50  0000 L CNN
F 2 "" H 2450 3700 50  0001 C CNN
F 3 "~" H 2450 3700 50  0001 C CNN
	1    2450 3700
	-1   0    0    1   
$EndComp
$Comp
L Switch:SW_Push Кн1
U 1 1 5E16BAAE
P 1750 3900
F 0 "Кн1" H 1750 4185 50  0000 C CNN
F 1 "\"reset\"" H 1750 4094 50  0000 C CNN
F 2 "" H 1750 4100 50  0001 C CNN
F 3 "~" H 1750 4100 50  0001 C CNN
	1    1750 3900
	1    0    0    -1  
$EndComp
Entry Wire Line
	3000 2200 3100 2300
Text Label 3000 2300 2    50   ~ 0
SPI_MOSI
Text Label 3000 2000 2    50   ~ 0
SPI_MISO
Text Notes 1400 2650 0    50   Italic 0
Разъем программатора
$Comp
L BC56-12EWA:table2 XP1
U 1 1 5DF20169
P 2200 1750
F 0 "XP1" H 1908 1723 50  0000 C CNN
F 1 "table2" H 2200 1750 50  0001 C CNN
F 2 "" H 2200 1750 50  0001 C CNN
F 3 "" H 2200 1750 50  0001 C CNN
	1    2200 1750
	1    0    0    -1  
$EndComp
$Comp
L Device:C_Small C2
U 1 1 5DB69D9E
P 1750 4700
F 0 "C2" V 1900 4650 50  0000 L CNN
F 1 "22 пФ" V 2000 4600 50  0000 L CNN
F 2 "" H 1750 4700 50  0001 C CNN
F 3 "~" H 1750 4700 50  0001 C CNN
	1    1750 4700
	0    1    1    0   
$EndComp
Text Label 4750 3900 2    50   ~ 0
next_digit
Text Label 4750 4100 2    50   ~ 0
SPI_SS
Text Label 4750 4200 2    50   ~ 0
SPI_MOSI
Text Label 4750 4400 2    50   ~ 0
SPI_SCK
Text Label 4750 4300 2    50   ~ 0
SPI_MISO
Text Label 4750 4000 2    50   ~ 0
address_MR
Entry Wire Line
	9900 4350 10000 4450
Entry Wire Line
	9900 4450 10000 4550
Text Label 10000 4450 0    50   ~ 0
TWI_SDA
Text Label 10000 4550 0    50   ~ 0
TWI_SCL
$Comp
L Switch:SW_Push Кн2
U 1 1 5DB5B9B8
P 2550 7400
F 0 "Кн2" H 2550 7685 50  0000 C CNN
F 1 "\"set LT\"" H 2550 7594 50  0000 C CNN
F 2 "" H 2550 7600 50  0001 C CNN
F 3 "~" H 2550 7600 50  0001 C CNN
	1    2550 7400
	1    0    0    -1  
$EndComp
Entry Wire Line
	4850 4000 4750 3900
Entry Wire Line
	4750 4100 4850 4200
Entry Wire Line
	4750 4200 4850 4300
Entry Wire Line
	4750 4300 4850 4400
Entry Wire Line
	4750 4400 4850 4500
Entry Wire Line
	4750 4000 4850 4100
Entry Wire Line
	4500 4700 4600 4800
Entry Wire Line
	4500 4800 4600 4900
Entry Wire Line
	4500 4900 4600 5000
Entry Wire Line
	4500 5500 4600 5600
Entry Wire Line
	4500 5800 4600 5900
Entry Wire Line
	4500 5900 4600 6000
Entry Wire Line
	4500 6000 4600 6100
Text Label 4500 4700 2    50   ~ 0
key_r0
Text Label 4500 4800 2    50   ~ 0
key_r1
Text Label 4500 4900 2    50   ~ 0
key_r2
Text Label 4500 5800 2    50   ~ 0
key_c0
Text Label 4500 5900 2    50   ~ 0
key_c1
Text Label 4500 6000 2    50   ~ 0
key_c2
Text Label 4500 5500 2    50   ~ 0
key_INT
$Comp
L BC56-12EWA:BC56-12EWA HG2
U 1 1 5DD92628
P 9500 2800
F 0 "HG2" H 9300 3467 50  0000 C CNN
F 1 "BC56-12EWA" H 9300 3376 50  0000 C CNN
F 2 "Display_7Segment:BC56-12EWA" H 9300 2200 50  0001 C CNN
F 3 "http://www.kingbright.com/attachments/file/psearch/000/00/00/CA56-12CGKWA(Ver.9A).pdf" H 9070 2830 50  0001 C CNN
	1    9500 2800
	1    0    0    -1  
$EndComp
Entry Wire Line
	4850 2400 4950 2500
Entry Wire Line
	4850 2600 4950 2700
Entry Wire Line
	4850 2900 4950 3000
Entry Wire Line
	4850 3000 4950 3100
Text Label 4950 2500 0    50   ~ 0
SPI_MOSI
Text Label 4950 2700 0    50   ~ 0
SPI_SCK
Text Label 4950 3000 0    50   ~ 0
SPI_SS
Text Label 4950 3100 0    50   ~ 0
next_digit
Entry Wire Line
	4850 3900 4950 4000
Entry Wire Line
	4850 4200 4950 4300
Text Label 4950 4000 0    50   ~ 0
next_digit
Text Label 4950 4300 0    50   ~ 0
address_MR
$Comp
L Switch:SW_Push Кн4
U 1 1 5DE8469B
P 3050 7400
F 0 "Кн4" H 3050 7685 50  0000 C CNN
F 1 "\"TEMP+\"" H 3050 7594 50  0000 C CNN
F 2 "" H 3050 7600 50  0001 C CNN
F 3 "~" H 3050 7600 50  0001 C CNN
	1    3050 7400
	1    0    0    -1  
$EndComp
$Comp
L Switch:SW_Push Кн5
U 1 1 5DE936BB
P 3050 7900
F 0 "Кн5" H 3050 8185 50  0000 C CNN
F 1 "\"OK\"" H 3050 8094 50  0000 C CNN
F 2 "" H 3050 8100 50  0001 C CNN
F 3 "~" H 3050 8100 50  0001 C CNN
	1    3050 7900
	1    0    0    -1  
$EndComp
$Comp
L Switch:SW_Push Кн3
U 1 1 5DE97D77
P 2550 7900
F 0 "Кн3" H 2550 8185 50  0000 C CNN
F 1 "\"prev\"" H 2550 8094 50  0000 C CNN
F 2 "" H 2550 8100 50  0001 C CNN
F 3 "~" H 2550 8100 50  0001 C CNN
	1    2550 7900
	1    0    0    -1  
$EndComp
$Comp
L Switch:SW_Push Кн8
U 1 1 5DE9C64F
P 3550 7900
F 0 "Кн8" H 3550 8185 50  0000 C CNN
F 1 "\"next\"" H 3550 8094 50  0000 C CNN
F 2 "" H 3550 8100 50  0001 C CNN
F 3 "~" H 3550 8100 50  0001 C CNN
	1    3550 7900
	1    0    0    -1  
$EndComp
$Comp
L Switch:SW_Push Кн6
U 1 1 5DEA1037
P 3050 8400
F 0 "Кн6" H 3050 8685 50  0000 C CNN
F 1 "\"TEMP-\"" H 3050 8594 50  0000 C CNN
F 2 "" H 3050 8600 50  0001 C CNN
F 3 "~" H 3050 8600 50  0001 C CNN
	1    3050 8400
	1    0    0    -1  
$EndComp
Wire Wire Line
	3750 7400 3750 7500
Wire Wire Line
	3750 7500 3250 7500
Wire Wire Line
	2750 7400 2750 7500
Wire Wire Line
	3250 7400 3250 7500
Connection ~ 3250 7500
Wire Wire Line
	3250 7500 2750 7500
Wire Wire Line
	3750 7900 3750 8000
Wire Wire Line
	3750 8000 3250 8000
Wire Wire Line
	2750 7900 2750 8000
Wire Wire Line
	3250 7900 3250 8000
Connection ~ 3250 8000
Wire Wire Line
	3250 8000 2750 8000
Wire Wire Line
	3250 8400 3250 8500
Wire Wire Line
	2350 7400 2350 7900
Wire Wire Line
	2850 7400 2850 7900
Connection ~ 2850 7900
Wire Wire Line
	2850 7900 2850 8400
Wire Wire Line
	3350 7400 3350 7900
Wire Wire Line
	3850 8000 3750 8000
Connection ~ 3750 8000
Wire Wire Line
	3850 7500 3750 7500
Connection ~ 3750 7500
Wire Wire Line
	3850 8500 3250 8500
Wire Wire Line
	4150 7500 4150 8000
Connection ~ 4150 8000
Wire Wire Line
	4150 8000 4150 8500
Connection ~ 4150 8500
Wire Wire Line
	2750 8000 2250 8000
Wire Wire Line
	2250 8000 2250 7600
Connection ~ 2750 8000
Wire Wire Line
	3250 8500 2150 8500
Wire Wire Line
	2150 8500 2150 7700
Connection ~ 3250 8500
$Comp
L Device:R_Small R5
U 1 1 5DFC9380
P 1950 8100
F 0 "R5" H 1900 8150 50  0000 R CNN
F 1 "10к Ом" H 1900 8050 50  0000 R CNN
F 2 "" H 1950 8100 50  0001 C CNN
F 3 "~" H 1950 8100 50  0001 C CNN
	1    1950 8100
	1    0    0    -1  
$EndComp
Entry Wire Line
	2250 6500 2350 6600
Entry Wire Line
	3250 6500 3350 6600
Entry Wire Line
	1500 7700 1600 7800
Entry Wire Line
	1500 7600 1600 7700
Entry Wire Line
	1500 7500 1600 7600
Entry Wire Line
	1500 7400 1600 7500
Text Label 1600 7500 0    50   ~ 0
key_r0
Text Label 1600 7600 0    50   ~ 0
key_r1
Text Label 1600 7700 0    50   ~ 0
key_r2
Text Label 2350 6600 3    50   ~ 0
key_c0
Text Label 3350 6600 3    50   ~ 0
key_c2
Text Label 1600 7800 0    50   ~ 0
key_INT
$Comp
L Switch:SW_Push Кн7
U 1 1 5DE8EA1A
P 3550 7400
F 0 "Кн7" H 3550 7685 50  0000 C CNN
F 1 "\"set HT\"" H 3550 7594 50  0000 C CNN
F 2 "" H 3550 7600 50  0001 C CNN
F 3 "~" H 3550 7600 50  0001 C CNN
	1    3550 7400
	1    0    0    -1  
$EndComp
$Comp
L 74:74HC595 DD3
U 1 1 5DEAF41A
P 6100 2900
F 0 "DD3" H 6100 3600 50  0000 C CNN
F 1 "74HC595" H 6100 3500 50  0000 C CNN
F 2 "" H 6100 2900 50  0001 C CNN
F 3 "http://www.ti.com/lit/ds/symlink/sn74hc595.pdf" H 6100 2900 50  0001 C CNN
	1    6100 2900
	1    0    0    -1  
$EndComp
$Comp
L Simulation_SPICE:DIODE Д3
U 1 1 5DEF45E1
P 4000 8500
F 0 "Д3" H 4000 8717 50  0000 C CNN
F 1 "1N4001" H 4000 8626 50  0000 C CNN
F 2 "" H 4000 8500 50  0001 C CNN
F 3 "~" H 4000 8500 50  0001 C CNN
F 4 "Y" H 4000 8500 50  0001 L CNN "Spice_Netlist_Enabled"
F 5 "V" H 4000 8500 50  0001 L CNN "Spice_Primitive"
	1    4000 8500
	1    0    0    -1  
$EndComp
$Comp
L Simulation_SPICE:DIODE Д2
U 1 1 5DEEE027
P 4000 8000
F 0 "Д2" H 4000 8217 50  0000 C CNN
F 1 "1N4001" H 4000 8126 50  0000 C CNN
F 2 "" H 4000 8000 50  0001 C CNN
F 3 "~" H 4000 8000 50  0001 C CNN
F 4 "Y" H 4000 8000 50  0001 L CNN "Spice_Netlist_Enabled"
F 5 "V" H 4000 8000 50  0001 L CNN "Spice_Primitive"
	1    4000 8000
	1    0    0    -1  
$EndComp
$Comp
L Simulation_SPICE:DIODE Д1
U 1 1 5DEE31D9
P 4000 7500
F 0 "Д1" H 4000 7717 50  0000 C CNN
F 1 "1N4001" H 4000 7626 50  0000 C CNN
F 2 "" H 4000 7500 50  0001 C CNN
F 3 "~" H 4000 7500 50  0001 C CNN
F 4 "Y" H 4000 7500 50  0001 L CNN "Spice_Netlist_Enabled"
F 5 "V" H 4000 7500 50  0001 L CNN "Spice_Primitive"
	1    4000 7500
	1    0    0    -1  
$EndComp
Wire Wire Line
	1950 8200 1950 8350
$Comp
L power:+5V #PWR0111
U 1 1 5DFA05F3
P 5450 2250
F 0 "#PWR0111" H 5450 2100 50  0001 C CNN
F 1 "+5V" H 5465 2423 50  0000 C CNN
F 2 "" H 5450 2250 50  0001 C CNN
F 3 "" H 5450 2250 50  0001 C CNN
	1    5450 2250
	1    0    0    -1  
$EndComp
$Comp
L 40**:4017 DD4
U 1 1 5DE7A5CA
P 6100 4500
F 0 "DD4" H 6100 5300 50  0000 C CNN
F 1 "CD4017BE" H 6100 5200 50  0000 C CNN
F 2 "" H 6100 4500 50  0001 C CNN
F 3 "http://www.intersil.com/content/dam/Intersil/documents/cd40/cd4017bms-22bms.pdf" H 6100 4500 50  0001 C CNN
	1    6100 4500
	1    0    0    -1  
$EndComp
Entry Wire Line
	8400 4000 8500 4100
Entry Wire Line
	8400 4100 8500 4200
Entry Wire Line
	8400 4200 8500 4300
Text Label 8400 4000 2    50   ~ 0
DIGIT_1
Text Label 8400 4100 2    50   ~ 0
DIGIT_2
Text Label 8400 4200 2    50   ~ 0
DIGIT_3
Entry Wire Line
	8400 4300 8500 4400
Entry Wire Line
	8400 4400 8500 4500
Entry Wire Line
	8400 4500 8500 4600
Text Label 8400 4300 2    50   ~ 0
DIGIT_4
Text Label 8400 4400 2    50   ~ 0
DIGIT_5
Text Label 8400 4500 2    50   ~ 0
DIGIT_6
Wire Wire Line
	7650 7100 7650 7200
$Comp
L power:Earth #PWR0113
U 1 1 5E0F847A
P 8450 8250
F 0 "#PWR0113" H 8450 8000 50  0001 C CNN
F 1 "Earth" H 8450 8100 50  0001 C CNN
F 2 "" H 8450 8250 50  0001 C CNN
F 3 "~" H 8450 8250 50  0001 C CNN
	1    8450 8250
	1    0    0    -1  
$EndComp
Wire Wire Line
	8450 8150 8450 8250
Wire Wire Line
	8600 8150 8450 8150
Text Notes 9250 8800 0    50   Italic 0
RS-232 DB9
Text Notes 9000 8700 0    50   ~ 0
Разъем коммутации с ПЭВМ
$Comp
L uart:MAX232 DD5
U 1 1 5DF6ACAF
P 6400 7600
F 0 "DD5" H 6400 8800 50  0000 C CNN
F 1 "MAX232ACPE+" H 6400 8700 50  0000 C CNN
F 2 "" H 6450 6550 50  0001 L CNN
F 3 "http://www.ti.com/lit/ds/symlink/max232.pdf" H 6400 7700 50  0001 C CNN
	1    6400 7600
	1    0    0    -1  
$EndComp
Wire Wire Line
	8600 8450 8600 8350
Text Label 5200 7700 0    50   ~ 0
UART_TX
Entry Wire Line
	5100 7600 5200 7700
Wire Wire Line
	5600 6950 5600 7000
Wire Wire Line
	5600 6750 5600 6700
Wire Wire Line
	7200 6950 7200 7000
Wire Wire Line
	7250 7200 7200 7200
Wire Wire Line
	7250 7500 7200 7500
$Comp
L Device:CP_Small C6
U 1 1 5DBABFAB
P 5600 6850
F 0 "C6" H 5500 6900 50  0000 R CNN
F 1 "1 мкФ" H 5500 6800 50  0000 R CNN
F 2 "" H 5600 6850 50  0001 C CNN
F 3 "~" H 5600 6850 50  0001 C CNN
	1    5600 6850
	1    0    0    -1  
$EndComp
$Comp
L Device:CP_Small C7
U 1 1 5DBABB46
P 7200 6850
F 0 "C7" H 7288 6896 50  0000 L CNN
F 1 "1 мкФ" H 7288 6805 50  0000 L CNN
F 2 "" H 7200 6850 50  0001 C CNN
F 3 "~" H 7200 6850 50  0001 C CNN
	1    7200 6850
	1    0    0    -1  
$EndComp
$Comp
L Device:CP_Small C9
U 1 1 5DBAB8C2
P 7350 7500
F 0 "C9" V 7150 7500 50  0000 C CNN
F 1 "1 мкФ" V 7250 7500 50  0000 C CNN
F 2 "" H 7350 7500 50  0001 C CNN
F 3 "~" H 7350 7500 50  0001 C CNN
	1    7350 7500
	0    1    1    0   
$EndComp
$Comp
L BC56-12EWA:table3 XP3
U 1 1 5E2FD0CE
P 9200 7550
F 0 "XP3" H 9500 7600 50  0000 L CNN
F 1 "table3" H 9200 7550 50  0001 C CNN
F 2 "" H 9200 7550 50  0001 C CNN
F 3 "" H 9200 7550 50  0001 C CNN
	1    9200 7550
	1    0    0    -1  
$EndComp
Wire Wire Line
	4200 3900 4750 3900
Wire Wire Line
	4200 4000 4750 4000
Wire Wire Line
	4200 4100 4750 4100
Wire Wire Line
	4200 4300 4750 4300
Wire Wire Line
	4200 4200 4750 4200
Wire Wire Line
	4200 4400 4750 4400
Wire Wire Line
	7200 7700 7250 7700
Wire Wire Line
	7200 8100 7250 8100
Wire Wire Line
	7950 7950 7850 7850
Wire Wire Line
	7950 7850 7850 7950
Wire Wire Line
	7250 8100 7250 7950
Wire Wire Line
	7250 7850 7250 7700
$Comp
L power:+5V #PWR0115
U 1 1 5E830100
P 7650 7100
F 0 "#PWR0115" H 7650 6950 50  0001 C CNN
F 1 "+5V" H 7665 7273 50  0000 C CNN
F 2 "" H 7650 7100 50  0001 C CNN
F 3 "" H 7650 7100 50  0001 C CNN
	1    7650 7100
	1    0    0    -1  
$EndComp
Wire Wire Line
	7650 7600 7650 7500
$Comp
L Device:CP_Small C8
U 1 1 5DB9AC99
P 7350 7200
F 0 "C8" V 7550 7200 50  0000 C CNN
F 1 "1 мкФ" V 7450 7200 50  0000 C CNN
F 2 "" H 7350 7200 50  0001 C CNN
F 3 "~" H 7350 7200 50  0001 C CNN
	1    7350 7200
	0    -1   -1   0   
$EndComp
$Comp
L Device:CP C5
U 1 1 60F8D561
P 5450 9850
F 0 "C5" H 5568 9896 50  0000 L CNN
F 1 "1 мкФ" H 5568 9805 50  0000 L CNN
F 2 "" H 5488 9700 50  0001 C CNN
F 3 "~" H 5450 9850 50  0001 C CNN
	1    5450 9850
	1    0    0    -1  
$EndComp
Wire Wire Line
	5450 10000 5450 10100
Wire Wire Line
	5200 8100 5600 8100
Wire Wire Line
	7950 7850 8600 7850
Wire Wire Line
	7950 7950 8600 7950
Wire Wire Line
	7250 7850 7850 7850
Wire Wire Line
	7250 7950 7850 7950
Wire Wire Line
	7650 2500 8400 2500
Wire Wire Line
	7750 2600 8400 2600
Wire Wire Line
	7850 2700 8400 2700
Wire Wire Line
	7950 2800 8400 2800
Wire Wire Line
	8050 2900 8400 2900
Wire Wire Line
	8150 3000 8400 3000
Wire Wire Line
	8250 3100 8400 3100
Wire Wire Line
	8350 3200 8400 3200
Wire Wire Line
	2900 2400 2900 3900
Connection ~ 2450 3900
Wire Wire Line
	1950 3900 2450 3900
Wire Wire Line
	1550 3900 1500 3900
Wire Wire Line
	1500 3900 1500 4050
Wire Wire Line
	5450 9500 5450 9650
Connection ~ 5450 9650
Wire Wire Line
	5450 9650 5450 9700
Wire Wire Line
	4850 9700 4850 9650
Wire Wire Line
	3750 9700 3750 9650
Connection ~ 4850 9650
Wire Wire Line
	4850 9650 5450 9650
Connection ~ 4850 10100
Wire Wire Line
	4850 10100 5450 10100
Wire Wire Line
	4300 10100 4850 10100
Wire Wire Line
	4600 9650 4850 9650
Connection ~ 3750 9650
Wire Wire Line
	3750 9650 3250 9650
Connection ~ 3750 10100
Wire Wire Line
	3750 10100 4300 10100
Wire Wire Line
	3750 9650 4000 9650
Wire Wire Line
	8600 8050 8550 8050
Wire Wire Line
	8550 8050 8550 8250
Wire Wire Line
	8550 8250 8600 8250
Wire Wire Line
	7450 7200 7650 7200
Wire Wire Line
	7450 7500 7650 7500
Wire Bus Line
	3100 1850 4850 1850
Wire Wire Line
	2300 2000 3000 2000
Wire Wire Line
	2300 2200 3000 2200
Wire Wire Line
	2300 2300 3000 2300
Connection ~ 2900 3900
Wire Wire Line
	2900 3900 3000 3900
Wire Wire Line
	2450 3900 2900 3900
Wire Wire Line
	2300 2400 2900 2400
Wire Wire Line
	5450 4100 5450 4450
Wire Wire Line
	5450 2250 5450 2800
Wire Wire Line
	1950 7800 1950 8000
Wire Wire Line
	8000 4000 8400 4000
Wire Wire Line
	8000 4100 8400 4100
Wire Wire Line
	8000 4200 8400 4200
Wire Wire Line
	8000 4300 8400 4300
Wire Wire Line
	8000 4400 8400 4400
Wire Wire Line
	8000 4500 8400 4500
Wire Wire Line
	4950 4000 5600 4000
Wire Wire Line
	5450 4100 5600 4100
Wire Wire Line
	4950 4300 5600 4300
Wire Wire Line
	4950 2500 5700 2500
Wire Wire Line
	4950 2700 5700 2700
Wire Wire Line
	5450 2800 5700 2800
Wire Wire Line
	4950 3000 5700 3000
Wire Wire Line
	4950 3100 5700 3100
Wire Wire Line
	1500 4300 1500 4700
Wire Wire Line
	2650 4300 3000 4300
Wire Wire Line
	1850 4300 2100 4300
Wire Wire Line
	2650 4300 2650 4700
Wire Wire Line
	1850 4700 2100 4700
Wire Wire Line
	2100 4350 2100 4300
Connection ~ 2100 4300
Wire Wire Line
	2100 4300 2450 4300
Wire Wire Line
	2100 4650 2100 4700
Connection ~ 2100 4700
Wire Wire Line
	2100 4700 2650 4700
Entry Wire Line
	10500 2900 10600 3000
Entry Wire Line
	10500 3000 10600 3100
Entry Wire Line
	10500 3100 10600 3200
Text Label 10500 2900 2    50   ~ 0
DIGIT_4
Text Label 10500 3000 2    50   ~ 0
DIGIT_5
Text Label 10500 3100 2    50   ~ 0
DIGIT_6
Wire Wire Line
	10200 2900 10500 2900
Wire Wire Line
	10500 3000 10200 3000
Wire Wire Line
	10500 3100 10200 3100
$Comp
L power:GNDD #PWR04
U 1 1 5DD67F65
P 2450 2650
F 0 "#PWR04" H 2450 2400 50  0001 C CNN
F 1 "GNDD" H 2454 2495 50  0001 C CNN
F 2 "" H 2450 2650 50  0001 C CNN
F 3 "" H 2450 2650 50  0001 C CNN
	1    2450 2650
	1    0    0    -1  
$EndComp
$Comp
L power:GNDD #PWR01
U 1 1 5DDC44A1
P 1500 4050
F 0 "#PWR01" H 1500 3800 50  0001 C CNN
F 1 "GNDD" H 1504 3895 50  0001 C CNN
F 2 "" H 1500 4050 50  0001 C CNN
F 3 "" H 1500 4050 50  0001 C CNN
	1    1500 4050
	1    0    0    -1  
$EndComp
$Comp
L power:GNDD #PWR02
U 1 1 5DDE588E
P 1500 4750
F 0 "#PWR02" H 1500 4500 50  0001 C CNN
F 1 "GNDD" H 1504 4595 50  0001 C CNN
F 2 "" H 1500 4750 50  0001 C CNN
F 3 "" H 1500 4750 50  0001 C CNN
	1    1500 4750
	1    0    0    -1  
$EndComp
$Comp
L power:GNDD #PWR05
U 1 1 5DE04CEE
P 4300 10250
F 0 "#PWR05" H 4300 10000 50  0001 C CNN
F 1 "GNDD" H 4304 10095 50  0001 C CNN
F 2 "" H 4300 10250 50  0001 C CNN
F 3 "" H 4300 10250 50  0001 C CNN
	1    4300 10250
	1    0    0    -1  
$EndComp
$Comp
L power:GNDD #PWR09
U 1 1 5DE25959
P 7650 7600
F 0 "#PWR09" H 7650 7350 50  0001 C CNN
F 1 "GNDD" H 7654 7445 50  0001 C CNN
F 2 "" H 7650 7600 50  0001 C CNN
F 3 "" H 7650 7600 50  0001 C CNN
	1    7650 7600
	1    0    0    -1  
$EndComp
$Comp
L power:GNDD #PWR06
U 1 1 5DEBC13A
P 5450 4450
F 0 "#PWR06" H 5450 4200 50  0001 C CNN
F 1 "GNDD" H 5454 4295 50  0001 C CNN
F 2 "" H 5450 4450 50  0001 C CNN
F 3 "" H 5450 4450 50  0001 C CNN
	1    5450 4450
	1    0    0    -1  
$EndComp
$Comp
L power:GNDD #PWR03
U 1 1 5DEE0E57
P 1950 8350
F 0 "#PWR03" H 1950 8100 50  0001 C CNN
F 1 "GNDD" H 1954 8195 50  0001 C CNN
F 2 "" H 1950 8350 50  0001 C CNN
F 3 "" H 1950 8350 50  0001 C CNN
	1    1950 8350
	1    0    0    -1  
$EndComp
Wire Wire Line
	14550 1550 14250 1550
Wire Wire Line
	14550 1450 14250 1450
Wire Wire Line
	14250 1250 14450 1250
Wire Wire Line
	14450 1250 14450 1650
Wire Wire Line
	14250 1350 14350 1350
Wire Wire Line
	14550 1650 14450 1650
Connection ~ 14450 1650
Wire Wire Line
	14450 1650 14450 1750
Wire Wire Line
	14550 1750 14450 1750
Connection ~ 14450 1750
Wire Wire Line
	14450 1750 14450 1850
Wire Wire Line
	14550 1850 14450 1850
$Comp
L DS1621_:DS1621 DD7
U 1 1 5E068D07
P 15050 1650
F 0 "DD7" H 15150 2100 50  0000 L CNN
F 1 "DS1621" H 15300 2000 50  0000 C CNN
F 2 "Package_DIP:DIP-8_W7.62mm" H 14350 1300 50  0001 C CNN
F 3 "https://datasheets.maximintegrated.com/en/ds/DS1621.pdf" H 14900 1900 50  0001 C CNN
	1    15050 1650
	1    0    0    -1  
$EndComp
Wire Wire Line
	14350 1350 14350 1150
Wire Wire Line
	14350 1150 15050 1150
Wire Wire Line
	15050 1150 15050 1250
Wire Wire Line
	15050 2050 14450 2050
Wire Wire Line
	14450 2050 14450 1850
Connection ~ 14450 1850
Wire Wire Line
	14550 2550 14250 2550
Wire Wire Line
	14550 2450 14250 2450
Wire Wire Line
	14250 2250 14450 2250
Wire Wire Line
	14250 2350 14350 2350
Wire Wire Line
	14350 2350 14350 2650
Wire Wire Line
	14550 2750 14450 2750
Connection ~ 14450 2750
Wire Wire Line
	14450 2750 14450 2850
Wire Wire Line
	14550 2850 14450 2850
$Comp
L DS1621_:DS1621 DD8
U 1 1 5E146AC8
P 15050 2650
F 0 "DD8" H 15150 3100 50  0000 L CNN
F 1 "DS1621" H 15300 3000 50  0000 C CNN
F 2 "Package_DIP:DIP-8_W7.62mm" H 14350 2300 50  0001 C CNN
F 3 "https://datasheets.maximintegrated.com/en/ds/DS1621.pdf" H 14900 2900 50  0001 C CNN
	1    15050 2650
	1    0    0    -1  
$EndComp
Wire Wire Line
	14350 2350 14350 2150
Wire Wire Line
	14350 2150 15050 2150
Wire Wire Line
	15050 2150 15050 2250
Connection ~ 14350 2350
Wire Wire Line
	15050 3050 14450 3050
Wire Wire Line
	14450 3050 14450 2850
Connection ~ 14450 2850
Wire Wire Line
	14550 3550 14250 3550
Wire Wire Line
	14550 3450 14250 3450
Wire Wire Line
	14250 3250 14450 3250
Wire Wire Line
	14450 3250 14450 3650
Wire Wire Line
	14250 3350 14350 3350
Wire Wire Line
	14350 3350 14350 3750
Wire Wire Line
	14550 3650 14450 3650
Connection ~ 14450 3650
Wire Wire Line
	14550 3850 14450 3850
$Comp
L DS1621_:DS1621 DD9
U 1 1 5E15AEF8
P 15050 3650
F 0 "DD9" H 15150 4100 50  0000 L CNN
F 1 "DS1621" H 15300 4000 50  0000 C CNN
F 2 "Package_DIP:DIP-8_W7.62mm" H 14350 3300 50  0001 C CNN
F 3 "https://datasheets.maximintegrated.com/en/ds/DS1621.pdf" H 14900 3900 50  0001 C CNN
	1    15050 3650
	1    0    0    -1  
$EndComp
Wire Wire Line
	14350 3350 14350 3150
Wire Wire Line
	14350 3150 15050 3150
Wire Wire Line
	15050 3150 15050 3250
Connection ~ 14350 3350
Wire Wire Line
	15050 4050 14450 4050
Wire Wire Line
	14450 4050 14450 3850
Connection ~ 14450 3850
Wire Wire Line
	14550 4550 14250 4550
Wire Wire Line
	14550 4450 14250 4450
Wire Wire Line
	14250 4250 14450 4250
Wire Wire Line
	14250 4350 14350 4350
Wire Wire Line
	14350 4350 14350 4650
Wire Wire Line
	14550 4850 14450 4850
$Comp
L DS1621_:DS1621 DD10
U 1 1 5E175AA0
P 15050 4650
F 0 "DD10" H 15150 5100 50  0000 L CNN
F 1 "DS1621" H 15300 5000 50  0000 C CNN
F 2 "Package_DIP:DIP-8_W7.62mm" H 14350 4300 50  0001 C CNN
F 3 "https://datasheets.maximintegrated.com/en/ds/DS1621.pdf" H 14900 4900 50  0001 C CNN
	1    15050 4650
	1    0    0    -1  
$EndComp
Wire Wire Line
	14350 4350 14350 4150
Wire Wire Line
	14350 4150 15050 4150
Wire Wire Line
	15050 4150 15050 4250
Connection ~ 14350 4350
Wire Wire Line
	15050 5050 14450 5050
Wire Wire Line
	14450 5050 14450 4850
Connection ~ 14450 4850
Wire Wire Line
	14550 5550 14250 5550
Wire Wire Line
	14550 5450 14250 5450
Wire Wire Line
	14250 5250 14450 5250
Wire Wire Line
	14450 5250 14450 5650
Wire Wire Line
	14250 5350 14350 5350
Wire Wire Line
	14350 5350 14350 5850
Wire Wire Line
	14550 5650 14450 5650
Connection ~ 14450 5650
Wire Wire Line
	14450 5650 14450 5750
Wire Wire Line
	14550 5750 14450 5750
Connection ~ 14450 5750
Wire Wire Line
	14350 5350 14350 5150
Wire Wire Line
	14350 5150 15050 5150
Wire Wire Line
	15050 5150 15050 5250
Connection ~ 14350 5350
Wire Wire Line
	15050 6050 14450 6050
Wire Wire Line
	14550 6550 14250 6550
Wire Wire Line
	14550 6450 14250 6450
Wire Wire Line
	14250 6250 14450 6250
Wire Wire Line
	14250 6350 14350 6350
Wire Wire Line
	14350 6350 14350 6650
Wire Wire Line
	14550 6750 14450 6750
Connection ~ 14450 6750
$Comp
L DS1621_:DS1621 DD12
U 1 1 5E1A678C
P 15050 6650
F 0 "DD12" H 15150 7100 50  0000 L CNN
F 1 "DS1621" H 15300 7000 50  0000 C CNN
F 2 "Package_DIP:DIP-8_W7.62mm" H 14350 6300 50  0001 C CNN
F 3 "https://datasheets.maximintegrated.com/en/ds/DS1621.pdf" H 14900 6900 50  0001 C CNN
	1    15050 6650
	1    0    0    -1  
$EndComp
Wire Wire Line
	14350 6350 14350 6150
Wire Wire Line
	14350 6150 15050 6150
Wire Wire Line
	15050 6150 15050 6250
Connection ~ 14350 6350
Wire Wire Line
	15050 7050 14450 7050
Wire Wire Line
	14550 7550 14250 7550
Wire Wire Line
	14550 7450 14250 7450
Wire Wire Line
	14250 7250 14450 7250
Wire Wire Line
	14450 7250 14450 7650
Wire Wire Line
	14250 7350 14350 7350
Wire Wire Line
	14350 7350 14350 7750
Wire Wire Line
	14550 7650 14450 7650
Connection ~ 14450 7650
$Comp
L DS1621_:DS1621 DD13
U 1 1 5E1C1DA8
P 15050 7650
F 0 "DD13" H 15150 8100 50  0000 L CNN
F 1 "DS1621" H 15300 8000 50  0000 C CNN
F 2 "Package_DIP:DIP-8_W7.62mm" H 14350 7300 50  0001 C CNN
F 3 "https://datasheets.maximintegrated.com/en/ds/DS1621.pdf" H 14900 7900 50  0001 C CNN
	1    15050 7650
	1    0    0    -1  
$EndComp
Wire Wire Line
	14350 7350 14350 7150
Wire Wire Line
	14350 7150 15050 7150
Wire Wire Line
	15050 7150 15050 7250
Connection ~ 14350 7350
Wire Wire Line
	15050 8050 14450 8050
$Comp
L Device:R_Small R7
U 1 1 60E1CB61
P 11050 4300
F 0 "R7" H 11000 4350 50  0000 R CNN
F 1 "4.7 кОм" H 11000 4250 50  0000 R CNN
F 2 "" H 11050 4300 50  0001 C CNN
F 3 "~" H 11050 4300 50  0001 C CNN
	1    11050 4300
	-1   0    0    1   
$EndComp
Wire Wire Line
	11050 4150 10850 4150
Wire Wire Line
	10850 4150 10650 4150
Connection ~ 10850 4150
Wire Wire Line
	10650 4200 10650 4150
Wire Wire Line
	11050 4200 11050 4150
$Comp
L Device:R_Small R6
U 1 1 60E1FDB5
P 10650 4300
F 0 "R6" H 10709 4346 50  0000 L CNN
F 1 "4.7 кОм" H 10709 4255 50  0000 L CNN
F 2 "" H 10650 4300 50  0001 C CNN
F 3 "~" H 10650 4300 50  0001 C CNN
	1    10650 4300
	-1   0    0    1   
$EndComp
$Comp
L power:+5V #PWR0108
U 1 1 5DC5BA6F
P 10850 4100
F 0 "#PWR0108" H 10850 3950 50  0001 C CNN
F 1 "+5V" H 10865 4273 50  0000 C CNN
F 2 "" H 10850 4100 50  0001 C CNN
F 3 "" H 10850 4100 50  0001 C CNN
	1    10850 4100
	1    0    0    -1  
$EndComp
Wire Wire Line
	10850 4150 10850 4100
Wire Wire Line
	14450 2250 14450 2750
Wire Wire Line
	14550 2650 14350 2650
Wire Wire Line
	14450 3650 14450 3850
Wire Wire Line
	14550 3750 14350 3750
Wire Wire Line
	14450 4250 14450 4850
Wire Wire Line
	14550 4650 14350 4650
Connection ~ 14350 4650
Wire Wire Line
	14350 4650 14350 4750
Wire Wire Line
	14550 4750 14350 4750
$Comp
L DS1621_:DS1621 DD11
U 1 1 5E18D4B9
P 15050 5650
F 0 "DD11" H 15150 6100 50  0000 L CNN
F 1 "DS1621" H 15300 6000 50  0000 C CNN
F 2 "Package_DIP:DIP-8_W7.62mm" H 14350 5300 50  0001 C CNN
F 3 "https://datasheets.maximintegrated.com/en/ds/DS1621.pdf" H 14900 5900 50  0001 C CNN
	1    15050 5650
	1    0    0    -1  
$EndComp
Wire Wire Line
	14450 5750 14450 6050
Wire Wire Line
	14550 5850 14350 5850
Wire Wire Line
	14450 6750 14450 7050
Wire Wire Line
	14350 6850 14550 6850
Wire Wire Line
	14450 6250 14450 6750
Wire Wire Line
	14550 6650 14350 6650
Connection ~ 14350 6650
Wire Wire Line
	14350 6650 14350 6850
Wire Wire Line
	14450 7650 14450 8050
Wire Wire Line
	14550 7750 14350 7750
Connection ~ 14350 7750
Wire Wire Line
	14350 7750 14350 7850
Wire Wire Line
	14550 7850 14350 7850
$Comp
L Device:R_Network09 RN1
U 1 1 5DD7D673
P 7100 2250
F 0 "RN1" H 7000 2600 50  0000 L CNN
F 1 "10A221J" H 6950 2500 50  0000 L CNN
F 2 "Resistor_THT:R_Array_SIP10" V 7675 2250 50  0001 C CNN
F 3 "http://www.vishay.com/docs/31509/csc.pdf" H 7100 2250 50  0001 C CNN
	1    7100 2250
	1    0    0    -1  
$EndComp
$Comp
L power:+5V #PWR07
U 1 1 5DF357B9
P 6700 2000
F 0 "#PWR07" H 6700 1850 50  0001 C CNN
F 1 "+5V" H 6715 2173 50  0000 C CNN
F 2 "" H 6700 2000 50  0001 C CNN
F 3 "" H 6700 2000 50  0001 C CNN
	1    6700 2000
	1    0    0    -1  
$EndComp
Wire Wire Line
	7400 2450 7400 3200
Wire Wire Line
	7300 2450 7300 3100
Wire Wire Line
	7200 2450 7200 3000
Wire Wire Line
	7100 2450 7100 2900
Wire Wire Line
	7000 2450 7000 2800
Wire Wire Line
	6900 2450 6900 2700
Wire Wire Line
	6800 2450 6800 2600
Wire Wire Line
	6700 2450 6700 2500
Wire Wire Line
	10500 1850 10200 1850
Wire Wire Line
	10200 1750 10500 1750
Wire Wire Line
	10500 1650 10200 1650
Wire Wire Line
	8350 1950 8350 3200
Wire Wire Line
	8250 1850 8250 3100
Wire Wire Line
	8150 1750 8150 3000
Wire Wire Line
	8050 1650 8050 2900
Wire Wire Line
	7950 1550 7950 2800
Wire Wire Line
	7850 1450 7850 2700
Wire Wire Line
	7750 1350 7750 2600
Wire Wire Line
	7650 1250 7650 2500
Text Label 10500 1850 2    50   ~ 0
DIGIT_3
Text Label 10500 1750 2    50   ~ 0
DIGIT_2
Text Label 10500 1650 2    50   ~ 0
DIGIT_1
Entry Wire Line
	10500 1850 10600 1950
Entry Wire Line
	10500 1750 10600 1850
Entry Wire Line
	10500 1650 10600 1750
$Comp
L BC56-12EWA:BC56-12EWA HG1
U 1 1 5DD9AE50
P 9500 1550
F 0 "HG1" H 9300 2217 50  0000 C CNN
F 1 "BC56-12EWA" H 9300 2126 50  0000 C CNN
F 2 "Display_7Segment:BC56-12EWA" H 9300 950 50  0001 C CNN
F 3 "http://www.kingbright.com/attachments/file/psearch/000/00/00/CA56-12CGKWA(Ver.9A).pdf" H 9070 1580 50  0001 C CNN
	1    9500 1550
	1    0    0    -1  
$EndComp
Wire Wire Line
	8400 1250 7650 1250
Wire Wire Line
	8400 1350 7750 1350
Wire Wire Line
	8400 1450 7850 1450
Wire Wire Line
	8400 1550 7950 1550
Wire Wire Line
	8400 1650 8050 1650
Wire Wire Line
	8400 1750 8150 1750
Wire Wire Line
	8400 1850 8250 1850
Wire Wire Line
	8400 1950 8350 1950
$Comp
L Device:R_Pack08 RN2
U 1 1 5DF3C00A
P 6900 4400
F 0 "RN2" V 6283 4400 50  0000 C CNN
F 1 "10 кОм" V 6374 4400 50  0000 C CNN
F 2 "" V 7375 4400 50  0001 C CNN
F 3 "~" H 6900 4400 50  0001 C CNN
	1    6900 4400
	0    1    1    0   
$EndComp
Wire Wire Line
	6700 4000 6600 4000
Wire Wire Line
	6600 4100 6700 4100
Wire Wire Line
	6700 4200 6600 4200
Wire Wire Line
	6600 4300 6700 4300
Wire Wire Line
	6700 4400 6600 4400
Wire Wire Line
	6600 4500 6700 4500
Wire Wire Line
	6700 4600 6600 4600
Wire Wire Line
	6600 4700 6700 4700
Wire Wire Line
	7200 4000 7100 4000
Wire Wire Line
	7100 4100 7200 4100
Wire Wire Line
	7200 4200 7100 4200
Wire Wire Line
	7100 4300 7200 4300
Wire Wire Line
	7200 4400 7100 4400
Wire Wire Line
	7100 4500 7200 4500
Wire Wire Line
	7200 4600 7100 4600
$Comp
L power:GNDD #PWR08
U 1 1 5E194281
P 7600 4950
F 0 "#PWR08" H 7600 4700 50  0001 C CNN
F 1 "GNDD" H 7604 4795 50  0001 C CNN
F 2 "" H 7600 4950 50  0001 C CNN
F 3 "" H 7600 4950 50  0001 C CNN
	1    7600 4950
	1    0    0    -1  
$EndComp
Connection ~ 6800 2600
Wire Wire Line
	6800 2600 7750 2600
Connection ~ 6900 2700
Wire Wire Line
	6900 2700 7850 2700
Connection ~ 7000 2800
Wire Wire Line
	7000 2800 7950 2800
Connection ~ 7100 2900
Wire Wire Line
	7100 2900 8050 2900
Connection ~ 7200 3000
Wire Wire Line
	7200 3000 8150 3000
Connection ~ 7300 3100
Wire Wire Line
	7300 3100 8250 3100
Connection ~ 7400 3200
Wire Wire Line
	7400 3200 8350 3200
Wire Wire Line
	6700 2000 6700 2050
Wire Wire Line
	6700 2500 7650 2500
Connection ~ 6700 2500
Connection ~ 7650 2500
Connection ~ 7750 2600
Connection ~ 7850 2700
Connection ~ 7950 2800
Connection ~ 8050 2900
Connection ~ 8150 3000
Connection ~ 8250 3100
Connection ~ 8350 3200
Wire Wire Line
	6500 2500 6700 2500
Wire Wire Line
	6500 2600 6800 2600
Wire Wire Line
	6500 2700 6900 2700
Wire Wire Line
	6500 2800 7000 2800
Wire Wire Line
	6500 2900 7100 2900
Wire Wire Line
	6500 3000 7200 3000
Wire Wire Line
	6500 3100 7300 3100
Wire Wire Line
	6500 3200 7400 3200
Wire Bus Line
	10600 3500 8500 3500
$Comp
L Transistor_Array:ULN2803A DD6
U 1 1 5E845488
P 7600 4200
F 0 "DD6" H 7600 4767 50  0000 C CNN
F 1 "ULN2803A" H 7600 4676 50  0000 C CNN
F 2 "" H 7650 3550 50  0001 L CNN
F 3 "http://www.ti.com/lit/ds/symlink/uln2803a.pdf" H 7700 4000 50  0001 C CNN
	1    7600 4200
	1    0    0    -1  
$EndComp
Wire Wire Line
	7600 4900 7600 4950
Wire Wire Line
	7200 4700 7100 4700
$Comp
L Device:R_Small R2
U 1 1 5DF16955
P 2350 7000
F 0 "R2" H 2250 6900 50  0000 C CNN
F 1 "4.7 кОм" H 2150 7000 50  0000 C CNN
F 2 "" H 2350 7000 50  0001 C CNN
F 3 "~" H 2350 7000 50  0001 C CNN
	1    2350 7000
	-1   0    0    1   
$EndComp
$Comp
L Device:R_Small R3
U 1 1 5EBD5917
P 2850 7000
F 0 "R3" H 2750 6900 50  0000 C CNN
F 1 "4.7 кОм" H 2650 7000 50  0000 C CNN
F 2 "" H 2850 7000 50  0001 C CNN
F 3 "~" H 2850 7000 50  0001 C CNN
	1    2850 7000
	-1   0    0    1   
$EndComp
$Comp
L Device:R_Small R4
U 1 1 5EBD5C64
P 3350 7000
F 0 "R4" H 3250 6900 50  0000 C CNN
F 1 "4.7 кОм" H 3150 7000 50  0000 C CNN
F 2 "" H 3350 7000 50  0001 C CNN
F 3 "~" H 3350 7000 50  0001 C CNN
	1    3350 7000
	-1   0    0    1   
$EndComp
Wire Wire Line
	3350 7100 3350 7400
Connection ~ 3350 7400
Wire Wire Line
	2850 7100 2850 7400
Connection ~ 2850 7400
Wire Wire Line
	2350 7100 2350 7400
Connection ~ 2350 7400
Text Label 2850 6600 3    50   ~ 0
key_c1
Entry Wire Line
	2750 6500 2850 6600
Wire Wire Line
	4150 8500 4150 8600
Wire Wire Line
	2050 7800 2050 8600
Wire Wire Line
	2050 8600 4150 8600
Wire Wire Line
	3350 6900 3350 6600
Wire Wire Line
	2850 6900 2850 6600
Wire Wire Line
	2350 6900 2350 6600
Wire Wire Line
	1950 7800 2050 7800
Wire Wire Line
	1600 7800 1950 7800
Connection ~ 1950 7800
Wire Wire Line
	1600 7700 2150 7700
Wire Wire Line
	2250 7600 1600 7600
Wire Wire Line
	1600 7500 2750 7500
Connection ~ 2750 7500
Wire Wire Line
	4500 4700 4200 4700
Wire Wire Line
	4200 4800 4500 4800
Wire Wire Line
	4500 4900 4200 4900
Wire Wire Line
	4200 5500 4500 5500
Wire Wire Line
	4500 5800 4200 5800
Wire Wire Line
	4200 5900 4500 5900
Wire Wire Line
	4500 6000 4200 6000
Entry Wire Line
	5200 5100 5300 5200
Entry Wire Line
	5200 5000 5300 5100
Entry Wire Line
	5000 5300 5100 5400
Entry Wire Line
	5000 5400 5100 5500
Text Label 5000 5400 2    50   ~ 0
UART_TX
Text Label 5200 5000 2    50   ~ 0
TWI_SDA
Text Label 5200 5100 2    50   ~ 0
TWI_SCL
Text Label 5000 5300 2    50   ~ 0
UART_RX
Wire Wire Line
	4200 5100 5200 5100
Wire Wire Line
	4200 5300 5000 5300
Wire Wire Line
	4200 5400 5000 5400
$Comp
L BC56-12EWA:B4B-ZR XP11
U 1 1 5F5B2CDA
P 13800 1050
F 0 "XP11" H 13800 1150 50  0000 C CNN
F 1 "B4B-ZR" H 13800 1050 50  0000 C CNN
F 2 "" H 13800 1050 50  0001 C CNN
F 3 "" H 13800 1050 50  0001 C CNN
	1    13800 1050
	1    0    0    -1  
$EndComp
$Comp
L BC56-12EWA:B4B-ZR XP4
U 1 1 5F603962
P 12700 1050
F 0 "XP4" H 12750 1150 50  0000 R CNN
F 1 "B4B-ZR" H 12800 1050 50  0000 R CNN
F 2 "" H 12700 1050 50  0001 C CNN
F 3 "" H 12700 1050 50  0001 C CNN
	1    12700 1050
	-1   0    0    -1  
$EndComp
$Comp
L BC56-12EWA:B4B-ZR XP12
U 1 1 5F6A8AEE
P 13800 2050
F 0 "XP12" H 13800 2150 50  0000 C CNN
F 1 "B4B-ZR" H 13800 2050 50  0000 C CNN
F 2 "" H 13800 2050 50  0001 C CNN
F 3 "" H 13800 2050 50  0001 C CNN
	1    13800 2050
	1    0    0    -1  
$EndComp
$Comp
L BC56-12EWA:B4B-ZR XP5
U 1 1 5F6A8AF4
P 12700 2050
F 0 "XP5" H 12750 2150 50  0000 R CNN
F 1 "B4B-ZR" H 12800 2050 50  0000 R CNN
F 2 "" H 12700 2050 50  0001 C CNN
F 3 "" H 12700 2050 50  0001 C CNN
	1    12700 2050
	-1   0    0    -1  
$EndComp
$Comp
L BC56-12EWA:B4B-ZR XP13
U 1 1 5F6C95F6
P 13800 3050
F 0 "XP13" H 13800 3150 50  0000 C CNN
F 1 "B4B-ZR" H 13800 3050 50  0000 C CNN
F 2 "" H 13800 3050 50  0001 C CNN
F 3 "" H 13800 3050 50  0001 C CNN
	1    13800 3050
	1    0    0    -1  
$EndComp
$Comp
L BC56-12EWA:B4B-ZR XP6
U 1 1 5F6C95FC
P 12700 3050
F 0 "XP6" H 12750 3150 50  0000 R CNN
F 1 "B4B-ZR" H 12800 3050 50  0000 R CNN
F 2 "" H 12700 3050 50  0001 C CNN
F 3 "" H 12700 3050 50  0001 C CNN
	1    12700 3050
	-1   0    0    -1  
$EndComp
$Comp
L BC56-12EWA:B4B-ZR XP14
U 1 1 5F6EBCF4
P 13800 4050
F 0 "XP14" H 13800 4150 50  0000 C CNN
F 1 "B4B-ZR" H 13800 4050 50  0000 C CNN
F 2 "" H 13800 4050 50  0001 C CNN
F 3 "" H 13800 4050 50  0001 C CNN
	1    13800 4050
	1    0    0    -1  
$EndComp
$Comp
L BC56-12EWA:B4B-ZR XP7
U 1 1 5F6EBCFA
P 12700 4050
F 0 "XP7" H 12750 4150 50  0000 R CNN
F 1 "B4B-ZR" H 12800 4050 50  0000 R CNN
F 2 "" H 12700 4050 50  0001 C CNN
F 3 "" H 12700 4050 50  0001 C CNN
	1    12700 4050
	-1   0    0    -1  
$EndComp
$Comp
L BC56-12EWA:B4B-ZR XP15
U 1 1 5F70CCCA
P 13800 5050
F 0 "XP15" H 13800 5150 50  0000 C CNN
F 1 "B4B-ZR" H 13800 5050 50  0000 C CNN
F 2 "" H 13800 5050 50  0001 C CNN
F 3 "" H 13800 5050 50  0001 C CNN
	1    13800 5050
	1    0    0    -1  
$EndComp
$Comp
L BC56-12EWA:B4B-ZR XP8
U 1 1 5F70CCD0
P 12700 5050
F 0 "XP8" H 12750 5150 50  0000 R CNN
F 1 "B4B-ZR" H 12800 5050 50  0000 R CNN
F 2 "" H 12700 5050 50  0001 C CNN
F 3 "" H 12700 5050 50  0001 C CNN
	1    12700 5050
	-1   0    0    -1  
$EndComp
$Comp
L BC56-12EWA:B4B-ZR XP16
U 1 1 5F72DC90
P 13800 6050
F 0 "XP16" H 13800 6150 50  0000 C CNN
F 1 "B4B-ZR" H 13800 6050 50  0000 C CNN
F 2 "" H 13800 6050 50  0001 C CNN
F 3 "" H 13800 6050 50  0001 C CNN
	1    13800 6050
	1    0    0    -1  
$EndComp
$Comp
L BC56-12EWA:B4B-ZR XP9
U 1 1 5F72DC96
P 12700 6050
F 0 "XP9" H 12750 6150 50  0000 R CNN
F 1 "B4B-ZR" H 12800 6050 50  0000 R CNN
F 2 "" H 12700 6050 50  0001 C CNN
F 3 "" H 12700 6050 50  0001 C CNN
	1    12700 6050
	-1   0    0    -1  
$EndComp
$Comp
L BC56-12EWA:B4B-ZR XP17
U 1 1 5F74EED0
P 13800 7050
F 0 "XP17" H 13800 7150 50  0000 C CNN
F 1 "B4B-ZR" H 13800 7050 50  0000 C CNN
F 2 "" H 13800 7050 50  0001 C CNN
F 3 "" H 13800 7050 50  0001 C CNN
	1    13800 7050
	1    0    0    -1  
$EndComp
$Comp
L BC56-12EWA:B4B-ZR XP10
U 1 1 5F74EED6
P 12700 7050
F 0 "XP10" H 12750 7150 50  0000 R CNN
F 1 "B4B-ZR" H 12800 7050 50  0000 R CNN
F 2 "" H 12700 7050 50  0001 C CNN
F 3 "" H 12700 7050 50  0001 C CNN
	1    12700 7050
	-1   0    0    -1  
$EndComp
Wire Wire Line
	5200 7700 5600 7700
Wire Wire Line
	7200 6750 7200 6700
Wire Wire Line
	12250 1550 12150 1550
Wire Wire Line
	12150 1550 12150 2550
Wire Wire Line
	12150 7550 12250 7550
Wire Wire Line
	12250 7450 12050 7450
Wire Wire Line
	12050 7450 12050 6450
Wire Wire Line
	12050 1450 12250 1450
Wire Wire Line
	12250 1350 11950 1350
Wire Wire Line
	11950 1350 11950 2350
Wire Wire Line
	11950 7350 12250 7350
Wire Wire Line
	12250 7250 11850 7250
Wire Wire Line
	11850 7250 11850 6250
Wire Wire Line
	11850 1250 12250 1250
Wire Wire Line
	12250 2250 11850 2250
Connection ~ 11850 2250
Wire Wire Line
	11850 2250 11850 1250
Wire Wire Line
	11950 2350 12250 2350
Connection ~ 11950 2350
Wire Wire Line
	11950 2350 11950 3350
Wire Wire Line
	12250 2450 12050 2450
Connection ~ 12050 2450
Wire Wire Line
	12050 2450 12050 1450
Wire Wire Line
	12250 2550 12150 2550
Connection ~ 12150 2550
Wire Wire Line
	12150 2550 12150 3550
Wire Wire Line
	12250 3250 11850 3250
Connection ~ 11850 3250
Wire Wire Line
	11850 3250 11850 2250
Wire Wire Line
	11950 3350 12250 3350
Connection ~ 11950 3350
Wire Wire Line
	11950 3350 11950 4350
Wire Wire Line
	12250 3450 12050 3450
Connection ~ 12050 3450
Wire Wire Line
	12050 3450 12050 2450
Wire Wire Line
	12150 3550 12250 3550
Connection ~ 12150 3550
Wire Wire Line
	12150 3550 12150 4550
Wire Wire Line
	12250 4250 11850 4250
Connection ~ 11850 4250
Wire Wire Line
	11850 4250 11850 3250
Wire Wire Line
	11950 4350 12250 4350
Connection ~ 11950 4350
Wire Wire Line
	11950 4350 11950 5350
Wire Wire Line
	12250 4450 12050 4450
Connection ~ 12050 4450
Wire Wire Line
	12050 4450 12050 3450
Wire Wire Line
	12150 4550 12250 4550
Connection ~ 12150 4550
Wire Wire Line
	12150 4550 12150 5550
Wire Wire Line
	12250 5250 11850 5250
Connection ~ 11850 5250
Wire Wire Line
	11850 5250 11850 4250
Wire Wire Line
	11950 5350 12250 5350
Connection ~ 11950 5350
Wire Wire Line
	11950 5350 11950 6350
Wire Wire Line
	12250 5450 12050 5450
Connection ~ 12050 5450
Wire Wire Line
	12050 5450 12050 4450
Wire Wire Line
	12150 5550 12250 5550
Connection ~ 12150 5550
Wire Wire Line
	12150 5550 12150 6550
Wire Wire Line
	12250 6250 11850 6250
Connection ~ 11850 6250
Wire Wire Line
	11850 6250 11850 5250
Wire Wire Line
	11950 6350 12250 6350
Connection ~ 11950 6350
Wire Wire Line
	11950 6350 11950 7350
Wire Wire Line
	12250 6450 12050 6450
Connection ~ 12050 6450
Wire Wire Line
	12050 6450 12050 5450
Wire Wire Line
	12150 6550 12250 6550
Connection ~ 12150 6550
Wire Wire Line
	12150 6550 12150 7550
Wire Wire Line
	10000 4550 11050 4550
Wire Wire Line
	12050 4450 10650 4450
Wire Wire Line
	10650 4400 10650 4450
Connection ~ 10650 4450
Wire Wire Line
	10650 4450 10000 4450
Wire Wire Line
	11050 4400 11050 4550
Connection ~ 11050 4550
Wire Wire Line
	11050 4550 12150 4550
Wire Bus Line
	5300 5400 9900 5400
$Comp
L power:+5V #PWR?
U 1 1 5FF5D248
P 11950 1150
F 0 "#PWR?" H 11950 1000 50  0001 C CNN
F 1 "+5V" H 11965 1323 50  0000 C CNN
F 2 "" H 11950 1150 50  0001 C CNN
F 3 "" H 11950 1150 50  0001 C CNN
	1    11950 1150
	1    0    0    -1  
$EndComp
Wire Wire Line
	11950 1150 11950 1350
Connection ~ 11950 1350
$Comp
L power:GNDD #PWR?
U 1 1 5FF99CD2
P 11850 7350
F 0 "#PWR?" H 11850 7100 50  0001 C CNN
F 1 "GNDD" H 11854 7195 50  0001 C CNN
F 2 "" H 11850 7350 50  0001 C CNN
F 3 "" H 11850 7350 50  0001 C CNN
	1    11850 7350
	1    0    0    -1  
$EndComp
Wire Wire Line
	11850 7350 11850 7250
Connection ~ 11850 7250
Text Notes 15600 8200 2    50   Italic 0
Модуль температурных датчиков
Wire Notes Line
	13250 850  13250 8250
Wire Notes Line
	15650 850  15650 8250
Wire Notes Line
	13250 8250 15650 8250
Wire Notes Line
	13250 850  15650 850 
Wire Wire Line
	4200 5000 5200 5000
Wire Bus Line
	9900 4200 9900 5400
Wire Bus Line
	5300 5000 5300 5400
Wire Bus Line
	1500 6500 4600 6500
Wire Bus Line
	3100 1850 3100 2500
Wire Bus Line
	5100 5300 5100 8400
Wire Bus Line
	1500 6500 1500 7800
Wire Bus Line
	8500 3500 8500 4700
Wire Bus Line
	10600 1650 10600 3500
Wire Bus Line
	4600 4700 4600 6500
Wire Bus Line
	4850 1850 4850 4600
$EndSCHEMATC
